{
    "key": "group_5fa1d20eda249",
    "title": "Ansøg bolig",
    "fields": [
        {
            "key": "field_5fa1d214dcac9",
            "label": "Er bolig ledig?",
            "name": "apparment_available",
            "type": "true_false",
            "instructions": "Her kan du angive om bolig er ledig. Hvis boligen er angivet som ledig tilføjes der en ansøgningsknap hvor brugeren kan ansøge lejligheden på mail info@sibyllebo.dk",
            "required": 0,
            "conditional_logic": 0,
            "wrapper": {
                "width": "",
                "class": "",
                "id": ""
            },
            "message": "",
            "default_value": 0,
            "ui": 0,
            "ui_on_text": "",
            "ui_off_text": ""
        }
    ],
    "location": [
        [
            {
                "param": "post_type",
                "operator": "==",
                "value": "bolig"
            }
        ]
    ],
    "menu_order": 3,
    "position": "normal",
    "style": "default",
    "label_placement": "top",
    "instruction_placement": "label",
    "hide_on_screen": "",
    "active": true,
    "description": "",
    "modified": 1604440950
}